[gd_scene load_steps=4 format=1]

[ext_resource path="res://goal.gd" type="Script" id=1]
[ext_resource path="res://goal.png" type="Texture" id=2]

[sub_resource type="RectangleShape2D" id=1]

custom_solver_bias = 0.0
extents = Vector2( 32, 32 )

[node name="goal" type="Area2D"]

transform/pos = Vector2( 32, 32 )
input/pickable = true
shapes/0/shape = SubResource( 1 )
shapes/0/transform = Matrix32( 1, 0, 0, 1, 0, 0 )
shapes/0/trigger = false
gravity_vec = Vector2( 0, 1 )
gravity = 98.0
linear_damp = 0.1
angular_damp = 1.0
script/script = ExtResource( 1 )

[node name="Sprite" type="Sprite" parent="."]

z/z = 3
texture = ExtResource( 2 )

[node name="CollisionShape2D" type="CollisionShape2D" parent="."]

shape = SubResource( 1 )
trigger = false
_update_shape_index = 0

[connection signal="body_enter" from="." to="." method="_on_goal_body_enter"]

[connection signal="body_exit" from="." to="." method="_on_goal_body_exit"]


